hu\usstom\mypage\config\SecurityConfig.class
hu\usstom\mypage\config\SecurityWebApplicationInitializer.class
hu\usstom\mypage\controller\AppController.class
hu\usstom\mypage\controller\LoginController.class
hu\usstom\mypage\config\MySpringMvcDispatcherServletInitializer.class
hu\usstom\mypage\config\AppConfig.class
